net/praktyki/desktopapp/Objects/Requests/UpdateUserRequest.class
net/praktyki/desktopapp/Objects/Requests/LoginRequest.class
net/praktyki/desktopapp/Controllers/TasksController.class
net/praktyki/desktopapp/Objects/Task.class
net/praktyki/desktopapp/Objects/Requests/UpdateTaskRequest.class
net/praktyki/desktopapp/Objects/Requests/UpdateCategoriesRequest.class
net/praktyki/desktopapp/Utils.class
net/praktyki/desktopapp/Objects/User.class
module-info.class
net/praktyki/desktopapp/Controllers/CreateTaskController.class
net/praktyki/desktopapp/Controllers/CreateCategoryController.class
net/praktyki/desktopapp/Controllers/LoginController$1.class
net/praktyki/desktopapp/SceneController.class
net/praktyki/desktopapp/Objects/Category.class
net/praktyki/desktopapp/Controllers/CategoriesController.class
net/praktyki/desktopapp/Controllers/LoginController.class
net/praktyki/desktopapp/Objects/Responses/DefaultResponse.class
net/praktyki/desktopapp/SystemInfo.class
net/praktyki/desktopapp/Objects/Requests/AddCategoryRequest.class
net/praktyki/desktopapp/Objects/Requests/GetTasksRequest.class
net/praktyki/desktopapp/Objects/Requests/AddTaskRequest.class
net/praktyki/desktopapp/App.class
