/Users/mac/IdeaProjects/desktopapp/src/main/java/net/praktyki/desktopapp/Utils.java
/Users/mac/IdeaProjects/desktopapp/src/main/java/net/praktyki/desktopapp/Objects/Responses/DefaultResponse.java
/Users/mac/IdeaProjects/desktopapp/src/main/java/net/praktyki/desktopapp/Controllers/CreateCategoryController.java
/Users/mac/IdeaProjects/desktopapp/src/main/java/net/praktyki/desktopapp/Objects/Requests/LoginRequest.java
/Users/mac/IdeaProjects/desktopapp/src/main/java/net/praktyki/desktopapp/Objects/Requests/AddTaskRequest.java
/Users/mac/IdeaProjects/desktopapp/src/main/java/net/praktyki/desktopapp/App.java
/Users/mac/IdeaProjects/desktopapp/src/main/java/net/praktyki/desktopapp/SceneController.java
/Users/mac/IdeaProjects/desktopapp/src/main/java/net/praktyki/desktopapp/Controllers/LoginController.java
/Users/mac/IdeaProjects/desktopapp/src/main/java/net/praktyki/desktopapp/SystemInfo.java
/Users/mac/IdeaProjects/desktopapp/src/main/java/net/praktyki/desktopapp/Objects/Requests/UpdateTaskRequest.java
/Users/mac/IdeaProjects/desktopapp/src/main/java/net/praktyki/desktopapp/Controllers/CategoriesController.java
/Users/mac/IdeaProjects/desktopapp/src/main/java/net/praktyki/desktopapp/Objects/Requests/UpdateUserRequest.java
/Users/mac/IdeaProjects/desktopapp/src/main/java/net/praktyki/desktopapp/Objects/Requests/AddCategoryRequest.java
/Users/mac/IdeaProjects/desktopapp/src/main/java/net/praktyki/desktopapp/Objects/Task.java
/Users/mac/IdeaProjects/desktopapp/src/main/java/net/praktyki/desktopapp/Controllers/CreateTaskController.java
/Users/mac/IdeaProjects/desktopapp/src/main/java/net/praktyki/desktopapp/Objects/Category.java
/Users/mac/IdeaProjects/desktopapp/src/main/java/net/praktyki/desktopapp/Objects/Requests/GetTasksRequest.java
/Users/mac/IdeaProjects/desktopapp/src/main/java/net/praktyki/desktopapp/Controllers/TasksController.java
/Users/mac/IdeaProjects/desktopapp/src/main/java/net/praktyki/desktopapp/Objects/User.java
/Users/mac/IdeaProjects/desktopapp/src/main/java/module-info.java
/Users/mac/IdeaProjects/desktopapp/src/main/java/net/praktyki/desktopapp/Objects/Requests/UpdateCategoriesRequest.java
